{
    "KPlugin": {
        "Authors": [
            {
                "Name": "Milian Wolff",
                "Name[az]": "Milian Wolff",
                "Name[ca@valencia]": "Milian Wolff",
                "Name[ca]": "Milian Wolff",
                "Name[cs]": "Milian Wolff",
                "Name[de]": "Milian Wolff",
                "Name[el]": "Milian Wolff",
                "Name[en_GB]": "Milian Wolff",
                "Name[es]": "Milian Wolff",
                "Name[et]": "Milian Wolff",
                "Name[eu]": "Milian Wolff",
                "Name[fr]": "Milian Wolff",
                "Name[gl]": "Milian Wolff",
                "Name[it]": "Milian Wolff",
                "Name[ko]": "Milian Wolff",
                "Name[nl]": "Milian Wolff",
                "Name[nn]": "Milian Wolff",
                "Name[pl]": "Milian Wolff",
                "Name[pt]": "Milian Wolff",
                "Name[pt_BR]": "Milian Wolff",
                "Name[ru]": "Milian Wolff",
                "Name[sk]": "Milian Wolff",
                "Name[sl]": "Milian Wolff",
                "Name[sv]": "Milian Wolff",
                "Name[tr]": "Milian Wolff",
                "Name[uk]": "Milian Wolff",
                "Name[x-test]": "xxMilian Wolffxx",
                "Name[zh_CN]": "Milian Wolff"
            }
        ],
        "Category": "Utilities",
        "Description": "Run external scripts or applications to manipulate the editor contents or do other arbitrary actions.",
        "Description[ar]": "شغّل سكرِبتات أو تطبيقات خارجيّة للتّلاعب بمحتويات المحرّر أو عمل إجراءات اعتباطيّة أخرى.",
        "Description[az]": "Redaktorun tərkiblərini idarə etmək xarici skriptləri və tətbiqləri başladın və ya digər ixtiyari əməlləri yerinə yetirin.",
        "Description[ca@valencia]": "Executa scripts externs o aplicacions per a manipular el contingut de l'editor o altres accions arbitràries.",
        "Description[ca]": "Executa scripts externs o aplicacions per a manipular el contingut de l'editor o altres accions arbitràries.",
        "Description[cs]": "Spouštějte externí skripty nebo aplikace a pracujte s obsahem editoru nebo dělejte jiné libovolné akce.",
        "Description[de]": "Führen Sie externe Skripte oder Programme zum Verändern des Editorinhalts oder für beliebige andere Aktionen aus.",
        "Description[el]": "Εκτέλεση εξωτερικών σεναρίων ή εφαρμογών για χειρισμό του περιεχομένου \"\"του κειμενογράφου ή για οποιεσδήποτε άλλες ενέργειες.",
        "Description[en_GB]": "Run external scripts or applications to manipulate the editor contents or do other arbitrary actions.",
        "Description[es]": "Ejecutar scripts externos o aplicaciones para manipular el contenido del editor o realizar otras acciones.",
        "Description[et]": "Välised skriptid või rakendused, mis võimaldavad muuta redaktori sisu või ette võtta mingeid muid toiminguid.",
        "Description[eu]": "Exekutatu kanpoko scriptak eta aplikazioak editorearen edukia aldatzeko edo beste ausazko ekitzak egiteko.",
        "Description[fr]": "Exécuter des scripts externes ou des applications pour manipuler les contenus de l'éditeur ou autres actions arbitraires.",
        "Description[gl]": "Executa scripts externos ou aplicacións para manipular os contidos do editor ou levar a cabo outras accións.",
        "Description[it]": "Avvia script o applicazioni esterne per manipolare il contenuto dell'editor o per eseguire altre azioni.",
        "Description[ko]": "편집기 내용을 편집하거나 동작을 수행하는 외부 스크립트나 프로그램을 실행합니다.",
        "Description[nl]": "Externe scripts of programma's uitvoeren om de inhoud van de bewerker te manipuleren of andere acties uit te voeren.",
        "Description[pl]": "Uruchamia zewnętrzne skrypty lub programy celem zmiany treści edytora lub wykonania innych działań.",
        "Description[pt]": "Executa programas ou aplicações externas para manipular o conteúdo do editor ou para efectuar outras acções arbitrárias.",
        "Description[pt_BR]": "Execute scripts externos ou aplicativos para manipular os conteúdos do editor ou para fazer outras ações ordinárias.",
        "Description[sk]": "Spustí externé skripty alebo aplikácie na manipuláciu s obsahom editora alebo robí iné ľubovoľné akcie.",
        "Description[sl]": "Zaganjajte zunanje skripte ali programe, ki upravljajo z vsebino urejevalnika ali pa opravljajo druga poljubna dejanja.",
        "Description[sv]": "Kör externa skript eller program för att behandla editorns innehåll eller utför andra godtyckliga åtgärder.",
        "Description[tr]": "Düzenleyici içeriğini değiştirmek veya diğer keyfi eylemler için dış betikler veya uygulamalar çalıştır.",
        "Description[uk]": "Запускає зовнішні скрипти або програми для обробки текстових даних редактора або виконання інших потрібних дій.",
        "Description[x-test]": "xxRun external scripts or applications to manipulate the editor contents or do other arbitrary actions.xx",
        "Description[zh_CN]": "运行外部脚本或应用程序来处理编辑器内容或者执行其他任意操作。",
        "Description[zh_TW]": "執行外部文稿或應用程式來運用編輯器內的內容，或是做各種動作。",
        "Icon": "system-run",
        "Id": "kdevexternalscript",
        "License": "GPL",
        "Name": "External Scripts",
        "Name[ar]": "سكرِبتات خارجيّة",
        "Name[az]": "Xarici skriptlər",
        "Name[bg]": "Външни скриптове",
        "Name[bs]": "Spoljnje skripte",
        "Name[ca@valencia]": "Scripts externs",
        "Name[ca]": "Scripts externs",
        "Name[cs]": "Externí skripty",
        "Name[da]": "Eksterne scripts",
        "Name[de]": "Externe Skripte",
        "Name[el]": "Εξωτερικά σενάρια",
        "Name[en_GB]": "External Scripts",
        "Name[es]": "Scripts externos",
        "Name[et]": "Välised skriptid",
        "Name[eu]": "Kanpoko scriptak",
        "Name[fr]": "Scripts externes",
        "Name[gl]": "Scripts externos",
        "Name[hu]": "Külső parancsfájlok",
        "Name[it]": "Script esterni",
        "Name[kk]": "Сыртқы скрипттер",
        "Name[ko]": "외부 스크립트",
        "Name[nb]": "Eksterne skripter",
        "Name[nds]": "Extern Skripten",
        "Name[nl]": "Externe scripts",
        "Name[pl]": "Zewnętrzne skrypty",
        "Name[pt]": "Programas Externos",
        "Name[pt_BR]": "Scripts externos",
        "Name[ru]": "Внешние сценарии",
        "Name[sk]": "Externé skripty",
        "Name[sl]": "Zunanji skripti",
        "Name[sv]": "Externa skript",
        "Name[tr]": "Dış Betikler",
        "Name[ug]": "سىرتقى قوليازما پروگرامما",
        "Name[uk]": "Зовнішні скрипти",
        "Name[x-test]": "xxExternal Scriptsxx",
        "Name[zh_CN]": "外部脚本",
        "Name[zh_TW]": "外部文稿"
    },
    "X-KDevelop-Category": "Global",
    "X-KDevelop-IRequired": [
        "org.kdevelop.IOutputView"
    ],
    "X-KDevelop-Interfaces": [
        "org.kdevelop.IPlugin"
    ],
    "X-KDevelop-Mode": "GUI"
}
